[
  [
    [2, 1],
    [0, 3]
  ],
  [
    [1, 2],
    [0, 3]
  ],
  [
    [2, 1],
    [3, 0]
  ],
  [
    [2, 0],
    [1, 3]
  ],
  [
    [2, 3],
    [1, 0]
  ],
  [
    [0, 2],
    [1, 3]
  ],
  [
    [2, 0],
    [3, 1]
  ],
  [
    [3, 1],
    [2, 0]
  ],
  [
    [0, 2],
    [3, 1]
  ],
  [
    [3, 0],
    [1, 2]
  ],
  [
    [0, 3, 2],
    [1, 4, 7],
    [6, 5, 8]
  ],
  [
    [0, 7, 2],
    [4, 5, 1],
    [6, 3, 8]
  ],
  [
    [1, 2, 3],
    [0, 4, 5],
    [8, 7, 6]
  ],
  [
    [8, 2, 7],
    [3, 5, 1],
    [6, 0, 4]
  ],
  [
    [0, 6, 2],
    [5, 4, 1],
    [8, 7, 3]
  ],
  [
    [0, 1, 2],
    [8, 4, 6],
    [3, 5, 7]
  ],
  [
    [3, 8, 5],
    [4, 1, 2],
    [0, 7, 6]
  ],
  [
    [1, 2, 4],
    [7, 6, 5],
    [8, 3, 0]
  ],
  [
    [7, 5, 6],
    [4, 0, 2],
    [8, 1, 3]
  ],
  [
    [8, 7, 6],
    [5, 4, 3],
    [2, 1, 0]
  ],
  [
    [5, 4, 1],
    [6, 2, 7],
    [0, 3, 8]
  ],
  [
    [2, 1, 4],
    [0, 8, 5],
    [3, 6, 7]
  ],
  [
    [6, 1, 5],
    [8, 0, 4],
    [7, 2, 3]
  ],
  [
    [8, 6, 0],
    [2, 3, 4],
    [5, 1, 7]
  ],
  [
    [7, 5, 6],
    [0, 1, 8],
    [3, 4, 2]
  ],
  [
    [5, 0, 1],
    [3, 4, 8],
    [7, 2, 6]
  ],
  [
    [0, 6, 8],
    [5, 1, 4],
    [7, 3, 2]
  ],
  [
    [3, 0, 6],
    [1, 8, 4],
    [7, 2, 5]
  ],
  [
    [4, 8, 7],
    [6, 0, 3],
    [2, 5, 1]
  ],
  [
    [2, 7, 0],
    [4, 6, 8],
    [3, 5, 1]
  ],
  [
    [0, 11, 2, 9],
    [14, 5, 12, 7],
    [8, 3, 10, 1],
    [6, 13, 4, 15]
  ],
  [
    [0, 3, 2, 1],
    [4, 7, 6, 5],
    [8, 11, 10, 9],
    [12, 15, 14, 13]
  ],
  [
    [0, 6, 10, 3],
    [13, 9, 5, 1],
    [14, 4, 2, 7],
    [12, 8, 11, 15]
  ],
  [
    [2, 1, 0, 3],
    [6, 5, 4, 7],
    [10, 9, 8, 11],
    [14, 13, 12, 15]
  ],
  [
    [0, 11, 9, 3],
    [13, 5, 1, 8],
    [7, 14, 10, 2],
    [12, 6, 4, 15]
  ],
  [
    [11, 0, 12, 2],
    [7, 5, 6, 8],
    [4, 9, 10, 3],
    [15, 1, 13, 14]
  ],
  [
    [5, 1, 2, 10],
    [4, 0, 12, 7],
    [8, 6, 15, 11],
    [3, 13, 14, 9]
  ],
  [
    [0, 7, 4, 3],
    [11, 5, 6, 13],
    [2, 9, 10, 8],
    [12, 14, 1, 15]
  ],
  [
    [11, 1, 9, 3],
    [0, 5, 2, 7],
    [8, 13, 10, 15],
    [12, 4, 14, 6]
  ],
  [
    [0, 1, 2, 3],
    [4, 9, 10, 7],
    [8, 5, 6, 11],
    [12, 13, 14, 15]
  ],
  [
              [4, 1, 2, 7],
    [14, 5, 6, 13],
    [8, 3, 0, 11],
    [12, 9, 10, 15]
  ],
  [
    [6, 1, 2, 5],
    [4, 13, 14, 7],
    [8, 3, 0, 11],
    [12, 9, 10, 15]
  ],
  [
    [12, 1, 2, 0],
    [4, 5, 6, 7],
    [8, 9, 10, 11],
    [15, 13, 14, 3]
  ],
  [
    [4, 1, 3, 0],
    [15, 10, 9, 7],
    [8, 12, 5, 6],
    [13, 2, 14, 11]
  ],
  [
    [0, 1, 3, 7],
    [4, 5, 8, 13],
    [12, 6, 10, 11],
    [9, 2, 14, 15]
  ],
  [
    [0, 1, 2, 3],
    [5, 4, 7, 10],
    [11, 8, 6, 9],
    [12, 13, 14, 15]
  ],
  [
    [6, 11, 4, 12],
    [0, 15, 8, 10],
    [7, 5, 1, 14],
    [13, 2, 3, 9]
  ],
  [
    [3, 4, 14, 12],
    [15, 13, 7, 5],
    [11, 0, 6, 9],
    [1, 8, 2, 10]
  ],
  [
    [8, 9, 11, 15],
    [14, 0, 5, 4],
    [1, 13, 3, 12],
    [2, 10, 6, 7]
  ],
  [
    [7, 14, 1, 12],
    [11, 8, 10, 2],
    [6, 3, 15, 0],
    [9, 4, 5, 13]
  ],
  [
    [2, 15, 4, 7, 24],
    [9, 11, 6, 13, 1],
    [3, 0, 12, 17, 8],
    [19, 21, 16, 23, 14],
    [10, 22, 20, 18, 5]
  ],
  [
    [0, 16, 9, 8, 4],
    [22, 11, 3, 23, 7],
    [14, 19, 12, 5, 21],
    [17, 1, 18, 13, 15],
    [20, 2, 10, 6, 24]
  ],
  [
    [20, 1, 23, 3, 21],
    [5, 4, 7, 13, 9],
    [10, 6, 2, 17, 14],
    [11, 16, 0, 18, 24],
    [8, 15, 22, 19, 12]
  ],
  [
    [0, 1, 2, 3, 4],
    [17, 14, 7, 16, 10],
    [19, 9, 12, 8, 18],
    [6, 23, 15, 20, 21],
    [22, 11, 13, 24, 5]
  ],
  [
    [0, 1, 2, 3, 4],
    [5, 8, 7, 6, 9],
    [10, 11, 12, 13, 14],
    [15, 18, 17, 16, 19],
    [20, 21, 22, 23, 24]
  ],
  [
    [9, 11, 24, 21, 12],
    [8, 13, 17, 6, 2],
    [16, 19, 1, 10, 20],
    [14, 22, 5, 23, 3],
    [18, 7, 15, 0, 4]
  ],
  [
    [24, 4, 17, 20, 9],
    [16, 21, 11, 19, 15],
    [8, 22, 5, 18, 6],
    [2, 3, 12, 0, 14],
    [23, 7, 1, 13, 10]
  ],
  [
    [17, 19, 5, 13, 9],
    [8, 1, 20, 14, 6],
    [24, 22, 15, 4, 11],
    [16, 10, 23, 12, 7],
    [21, 0, 3, 18, 2]
  ],
  [
    [5, 13, 14, 23, 2],
    [9, 16, 19, 7, 1],
    [12, 17, 4, 15, 6],
    [8, 3, 20, 21, 10],
    [24, 0, 11, 22, 18]
  ],
  [
    [22, 10, 19, 15, 9],
    [16, 14, 23, 4, 24],
    [21, 3, 8, 20, 18],
    [13, 12, 6, 1, 5],
    [2, 17, 7, 0, 11]
  ],
  [
        [21, 6, 22, 23, 9],
    [3, 16, 12, 11, 0],
    [5, 15, 13, 7, 8],
    [1, 14, 10, 24, 20],
    [19, 4, 17, 18, 2]
  ],
  [
    [19, 9, 4, 21, 7],
    [8, 0, 3, 22, 11],
    [2, 20, 16, 15, 13],
    [14, 5, 10, 17, 18],
    [24, 12, 6, 1, 23]
  ],
  [
    [24, 23, 22, 21, 20],
    [19, 18, 17, 16, 15],
    [14, 13, 12, 11, 10],
    [9, 8, 7, 6, 5],
    [4, 3, 2, 1, 0]
  ],
  [
    [5, 7, 22, 14, 3],
    [15, 11, 2, 10, 0],
    [1, 6, 23, 18, 9],
    [12, 21, 8, 20, 24],
    [19, 17, 16, 13, 4]
  ],
  [
    [0, 5, 10, 15, 20],
    [1, 6, 11, 16, 21],
    [2, 7, 12, 17, 22],
    [3, 8, 13, 18, 23],
    [4, 9, 14, 19, 24]
  ],
  [
    [24, 14, 13, 16, 11],
    [1, 21, 17, 20, 12],
    [8, 7, 19, 15, 3],
    [10, 4, 18, 2, 5],
    [22, 6, 9, 0, 23]
  ],
  [
    [21, 10, 7, 5, 14],
    [23, 1, 8, 3, 19],
    [16, 0, 4, 6, 24],
    [13, 12, 9, 22, 20],
    [17, 2, 18, 15, 11]
  ],
  [
    [14, 16, 4, 22, 24],
    [9, 19, 1, 2, 18],
    [23, 5, 15, 6, 10],
    [21, 0, 20, 11, 12],
    [3, 7, 17, 8, 13]
  ],
  [
    [6, 10, 5, 16, 12],
    [7, 2, 4, 3, 23],
    [22, 19, 8, 14, 15],
    [1, 18, 9, 11, 24],
    [17, 20, 21, 0, 13]
  ],
  [
    [2, 3, 6, 13, 8],
    [5, 11, 12, 24, 9],
    [10, 16, 17, 0, 14],
    [15, 20, 21, 23, 19],
    [22, 1, 4, 7, 18]
  ],
  [
    [11, 17, 23, 29, 35, 5],
    [22, 28, 34, 4, 10, 16],
    [33, 3, 9, 15, 21, 27],
    [8, 14, 20, 26, 32, 2],
    [19, 25, 31, 1, 7, 13],
    [30, 0, 6, 12, 18, 24]
  ],
  [
    [32, 13, 29, 17, 22, 10],
    [26, 18, 4, 27, 1, 28],
    [16, 5, 14, 15, 12, 19],
    [34, 2, 20, 21, 33, 6],
    [35, 11, 7, 0, 9, 8],
    [24, 23, 31, 3, 25, 30]
  ],
  [
    [0, 1, 2, 3, 4, 5],
    [8, 6, 10, 7, 9, 11],
    [12, 13, 14, 15, 25, 17],
    [18, 28, 20, 21, 19, 23],
    [24, 22, 16, 26, 27, 29],
    [30, 31, 32, 33, 34, 35]
  ],
  [
    [0, 1, 2, 3, 4, 5],
    [6, 7, 8, 9, 10, 11],
    [17, 13, 14, 15, 16, 12],
    [23, 19, 20, 21, 22, 18],
    [29, 28, 26, 27, 25, 24],
    [34, 35, 32, 33, 31, 30]
  ],
  [
    [0, 31, 4, 15, 14, 5],
    [6, 23, 30, 21, 1, 11],
    [8, 13, 10, 9, 16, 2],
    [29, 19, 7, 3, 22, 24],
    [12, 28, 26, 27, 34, 17],
    [35, 18, 32, 33, 20, 25]
  ],
  [
    [0, 1, 4, 5, 2, 3],
    [10, 11, 8, 9, 6, 7],
    [14, 15, 12, 13, 16, 17],
    [18, 19, 22, 23, 20, 21],
    [28, 29, 26, 27, 24, 25],
    [32, 33, 30, 31, 34, 35]
  ],
  [
    [0, 1, 4, 5, 2, 3],
    [6, 7, 10, 11, 8, 9],
    [12, 13, 16, 17, 14, 15],
    [18, 19, 22, 23, 20, 21],
    [24, 25, 28, 29, 26, 27],
    [30, 31, 34, 35, 32, 33]
  ],
  [
    [4, 5, 2, 3, 0, 1],
    [10, 11, 8, 9, 6, 7],
    [16, 17, 14, 15, 12, 13],
    [22, 23, 20, 21, 18, 19],
    [28, 29, 26, 27, 24, 25],
    [34, 35, 32, 33, 30, 31]
  ],
  [
    [4, 5, 2, 3, 0, 1],
    [10, 11, 8, 9, 6, 7],
    [12, 13, 24, 25, 16, 17],
    [18, 19, 30, 31, 22, 23],
    [28, 29, 26, 27, 14, 15],
    [34, 35, 32, 33, 20, 21]
  ],
  [
    [0, 1, 2, 3, 4, 5],
    [6, 13, 28, 16, 9, 11],
    [12, 22, 14, 15, 27, 17],
    [18, 10, 20, 21, 8, 23],
    [24, 19, 7, 26, 25, 29],
    [30, 31, 32, 33, 34, 35]
  ],
  [
    [30, 23, 24, 20, 31, 21],
    [17, 7, 8, 9, 10, 32],
    [15, 13, 4, 12, 16, 11],
    [0, 19, 35, 1, 22, 5],
    [18, 25, 26, 27, 28, 2],
    [33, 29, 14, 34, 3, 6]
  ],
  [
    [1, 2, 14, 24, 33, 30],
    [11, 34, 35, 28, 9, 15],
    [0, 12, 18, 25, 26, 10],
    [5, 17, 6, 31, 16, 22],
    [29, 4, 13, 3, 32, 21],
    [27, 19, 20, 23, 8, 7]
  ],
  [
    [7, 22, 12, 27, 34, 25],
    [26, 32, 19, 0, 29, 24],
    [3, 11, 10, 2, 6, 14],
    [33, 13, 9, 17, 5, 18],
    [20, 1, 28, 35, 31, 23],
    [4, 15, 21, 30, 16, 8]
  ],
  [
    [7, 32, 18, 9, 1, 10],
    [24, 26, 6, 34, 15, 13],
    [21, 8, 33, 14, 28, 27],
    [35, 4, 22, 30, 0, 25],
    [16, 17, 23, 3, 29, 2],
    [12, 20, 5, 19, 31, 11]
  ],
  [
    [6, 26, 23, 30, 12, 8],
    [16, 35, 7, 25, 14, 32],
    [4, 19, 27, 13, 20, 21],
    [11, 9, 17, 28, 1, 0],
    [33, 10, 18, 34, 31, 15],
    [29, 2, 24, 3, 22, 5]
  ],
  [
    [25, 13, 1, 26, 7, 3],
    [31, 30, 32, 6, 2, 34],
    [24, 35, 21, 27, 10, 28],
    [4, 12, 0, 5, 16, 33],
    [15, 19, 17, 22, 23, 11],
    [8, 20, 18, 14, 29, 9]
  ],
  [
    [32, 28, 30, 21, 12, 29],
    [2, 8, 22, 16, 18, 25],
    [33, 26, 20, 5, 0, 34],
    [13, 11, 1, 6, 24, 7],
    [10, 17, 3, 9, 4, 19],
    [23, 15, 35, 31, 14, 27]
  ],
  [
    [26, 17, 28, 7, 23, 13],
    [21, 6, 15, 2, 16, 1],
    [4, 9, 8, 18, 27, 22],
    [5, 24, 35, 34, 30, 14],
    [19, 33, 32, 3, 25, 20],
    [29, 12, 31, 0, 10, 11]
  ],
  [
    [27, 26, 9, 18, 34, 14],
    [19, 13, 0, 1, 2, 35],
    [10, 16, 17, 23, 8, 11],
    [32, 12, 29, 7, 5, 15],
    [33, 20, 21, 22, 25, 3],
    [6, 28, 4, 24, 30, 31]
  ],
  [
    [3, 24, 14, 28, 10, 1],
    [7, 18, 19, 16, 6, 33],
    [30, 25, 35, 11, 0, 21],
    [17, 9, 29, 15, 5, 2],
    [4, 12, 32, 20, 26, 23],
    [31, 34, 13, 22, 8, 27]
  ],
  [
    [5, 30, 28, 38, 17, 23, 7],
    [26, 48, 6, 44, 34, 40, 33],
    [9, 20, 10, 27, 42, 13, 36],
    [32, 8, 16, 43, 12, 37, 47],
    [15, 22, 31, 4, 41, 21, 25],
    [2, 45, 35, 19, 29, 18, 24],
    [3, 0, 46, 39, 1, 14, 11]
  ],
  [
    [10, 2, 7, 18, 46, 45, 14],
    [0, 11, 38, 3, 4, 39, 9],
    [19, 37, 44, 29, 33, 16, 41],
    [25, 42, 6, 21, 15, 23, 17],
    [34, 1, 13, 28, 22, 30, 24],
    [32, 48, 8, 5, 20, 12, 31],
    [27, 26, 47, 36, 40, 43, 35]
  ],
  [
    [17, 12, 7, 45, 47, 41, 48],
    [23, 15, 27, 3, 29, 1, 10],
    [11, 42, 0, 9, 44, 18, 6],
    [26, 28, 5, 16, 8, 19, 20],
    [34, 31, 35, 30, 38, 24, 25],
    [36, 13, 22, 39, 2, 33, 14],
    [43, 4, 37, 46, 32, 40, 21]
  ],
  [
    [44, 2, 15, 18, 27, 33, 16],
    [28, 47, 40, 32, 3, 6, 41],
    [48, 35, 9, 29, 23, 22, 5],
    [10, 45, 36, 25, 46, 11, 7],
    [20, 30, 31, 38, 14, 26, 0],
    [17, 39, 19, 13, 42, 34, 8],
    [37, 1, 12, 4, 43, 21, 24]
  ],
  [
    [16, 0, 12, 19, 42, 32, 3],
    [11, 17, 21, 18, 37, 41, 24],
    [22, 10, 7, 13, 15, 2, 44],
    [34, 39, 25, 4, 31, 1, 30],
    [48, 33, 23, 43, 38, 27, 14],
    [28, 8, 5, 29, 45, 9, 36],
    [26, 40, 35, 47, 6, 46, 20]
  ],
  [
    [43, 41, 30, 8, 5, 48, 10],
    [0, 40, 2, 24, 4, 7, 6],
    [16, 9, 22, 32, 13, 15, 23],
    [28, 1, 11, 35, 26, 20, 47],
    [36, 42, 38, 14, 3, 27, 37],
    [29, 18, 19, 31, 33, 25, 34],
    [39, 21, 45, 12, 44, 46, 17]
  ],
  [
    [37, 16, 42, 33, 39, 18, 27],
    [28, 3, 25, 35, 4, 13, 29],
    [36, 30, 15, 7, 14, 40, 41],
    [47, 26, 32, 11, 34, 5, 2],
    [0, 6, 20, 24, 9, 31, 1],
    [12, 8, 44, 22, 46, 19, 21],
    [43, 17, 10, 38, 23, 48, 45]
  ],
  [
    [20, 13, 16, 45, 40, 34, 46],
    [15, 5, 35, 39, 25, 23, 11],
    [33, 10, 47, 28, 17, 31, 3],
    [12, 21, 41, 42, 29, 38, 0],
    [7, 22, 44, 43, 19, 14, 1],
    [9, 30, 6, 48, 4, 18, 27],
    [32, 37, 26, 24, 2, 8, 36]
  ],
  [
    [11, 27, 35, 30, 23, 37, 46],
    [25, 42, 28, 6, 2, 39, 26],
    [29, 5, 12, 32, 48, 0, 33],
    [3, 45, 14, 21, 1, 18, 4],
    [36, 8, 31, 10, 40, 9, 17],
    [13, 19, 43, 34, 24, 15, 47],
    [41, 22, 20, 7, 44, 16, 38]
  ],
  [
    [17, 16, 42, 11, 25, 10, 4],
    [36, 34, 35, 38, 14, 23, 43],
    [41, 27, 40, 13, 12, 20, 15],
    [30, 2, 32, 18, 48, 3, 5],
    [47, 7, 37, 22, 26, 24, 9],
    [6, 28, 8, 33, 44, 45, 46],
    [21, 31, 39, 29, 19, 0, 1]
  ]
]
